module gitlab.com/adrolet/openapidemo

go 1.23

require (
	github.com/go-openapi/errors v0.22.0
	github.com/go-openapi/loads v0.22.0
	github.com/go-openapi/runtime v0.28.0
	github.com/go-openapi/spec v0.21.0
	github.com/go-openapi/strfmt v0.23.0
	github.com/go-openapi/swag v0.23.0
	github.com/go-openapi/validate v0.24.0
	github.com/jessevdk/go-flags v1.6.1
	golang.org/x/net v0.35.0
)

require (
	github.com/asaskevich/govalidator v0.0.0-20230301143203-a9d515a09cc2 // indirect
	github.com/docker/go-units v0.5.0 // indirect
	github.com/go-logr/logr v1.4.2 // indirect
	github.com/go-logr/stdr v1.2.2 // indirect
	github.com/go-openapi/analysis v0.23.0 // indirect
	github.com/go-openapi/jsonpointer v0.21.0 // indirect
	github.com/go-openapi/jsonreference v0.21.0 // indirect
	github.com/google/uuid v1.6.0 // indirect
	github.com/josharian/intern v1.0.0 // indirect
	github.com/mailru/easyjson v0.9.0 // indirect
	github.com/mitchellh/mapstructure v1.5.0 // indirect
	github.com/oklog/ulid v1.3.1 // indirect
	github.com/opentracing/opentracing-go v1.2.0 // indirect
	go.mongodb.org/mongo-driver v1.17.2 // indirect
	go.opentelemetry.io/auto/sdk v1.1.0 // indirect
	go.opentelemetry.io/otel v1.34.0 // indirect
	go.opentelemetry.io/otel/metric v1.34.0 // indirect
	go.opentelemetry.io/otel/trace v1.34.0 // indirect
	golang.org/x/sync v0.11.0 // indirect
	golang.org/x/sys v0.30.0 // indirect
	gopkg.in/yaml.v3 v3.0.1 // indirect
)

// https://github.com/go-swagger/go-swagger.git
